Opinion spread · Agents.jl
…
agent_step! (generic function with 1 method)
Running the model
First, we create a stopping condition, which runs the model until all agents stabilize.

rununtil(model, s) = count(a -> a.stabilized, allagents(model)) == length(positions(model))

rununtil (generic function with 1 method)
Then we create our model, run it and collect some information

model = create_model(nopinions = 3, levels_per_opinion = 4)

agentdata, _ = run!(model, agent_step!, dummystep, rununtil, adata = [(:stabilized, count)])

(201×2 DataFrame
 Row │ step   count_stabilized
     │ Int64  Int64
─────┼─────────────────────────
   1 │     0                 0
   2 │     1                74
   3 │     2                74
   4 │     3                77
   5 │     4                81
   6 │     5                79
   7 │     6                75
   8 │     7                71
  ⋮  │   ⋮           ⋮
 195 │   194                96
 196 │   195                89
 197 │   196                88
 198 │   197                96
 199 │   198                90
 200 │   199                97
 201 │   200               100
               186 rows omitted, 0×0 DataFrame)
…
